<svg xmlns="http://www.w3.org/2000/svg" width="24" height="24" viewBox="0 0 24 24" fill="none" style="&#10;">
    <circle cx="12" cy="12" r="10" stroke="white" stroke-width="2"/>
    <path d="M12.304 6.73599C10.096 6.73599 8.60801 8.06399 8.54401 10.176H10.336C10.432 8.78399 11.136 8.07999 12.224 8.07999C13.28 8.07999 13.872 8.73599 13.872 9.75999C13.872 10.624 13.52 11.232 12.448 12.432C11.616 13.376 11.312 13.968 11.232 14.992H12.848C12.912 14.192 13.168 13.776 14.096 12.88C15.232 11.792 15.776 10.864 15.776 9.69599C15.776 7.96799 14.528 6.73599 12.304 6.73599ZM12.048 15.968C11.392 15.968 10.928 16.448 10.928 17.104C10.928 17.76 11.392 18.224 12.048 18.224C12.704 18.224 13.184 17.76 13.184 17.104C13.184 16.448 12.704 15.968 12.048 15.968Z" fill="white"/>
</svg>