<svg width="24" height="24" viewBox="0 0 24 24" fill="none" xmlns="http://www.w3.org/2000/svg">
<path d="M18.9171 17.5552H17.6L17.6061 16.7901C17.6069 16.6261 17.6726 16.469 17.7888 16.3531C17.905 16.2373 18.0623 16.1722 18.2264 16.172H18.3104C18.4747 16.172 18.6323 16.237 18.7488 16.3528C18.8653 16.4686 18.9313 16.6259 18.9323 16.7901L18.9171 17.5552ZM13.9768 15.9157C13.6427 15.9157 13.3693 16.1403 13.3693 16.4152V20.136C13.3693 20.4104 13.6427 20.6344 13.9768 20.6344C14.3123 20.6344 14.5859 20.4104 14.5859 20.136V16.4152C14.5859 16.14 14.3123 15.9157 13.9768 15.9157ZM22 13.8344V20.9128C22 22.6107 20.5277 24 18.728 24H5.27227C3.472 24 2 22.6107 2 20.9128V13.8344C2 12.1365 3.472 10.7469 5.27227 10.7469H18.728C20.5277 10.7469 22 12.1365 22 13.8344ZM6.16987 21.6813L6.1688 14.2251L7.8368 14.2256V13.1208L3.3904 13.1141V14.2003L4.7784 14.2043V21.6813H6.16987ZM11.1699 15.3357H9.7792V19.3173C9.7792 19.8933 9.81413 20.1813 9.77707 20.2829C9.664 20.5917 9.15573 20.9197 8.9576 20.3163C8.924 20.2107 8.9536 19.892 8.95307 19.3448L8.94747 15.3357H7.56453L7.5688 19.2819C7.56987 19.8867 7.5552 20.3376 7.5736 20.5429C7.60747 20.9048 7.59547 21.3267 7.9312 21.5677C8.5568 22.0184 9.756 21.5005 10.056 20.8563L10.0533 21.6784L11.1701 21.6797L11.1699 15.3357ZM15.6187 19.8952L15.6157 16.5813C15.6147 15.3184 14.6699 14.5621 13.3875 15.584L13.3931 13.1203L12.004 13.1224L11.9973 21.6264L13.1397 21.6099L13.2437 21.0803C14.7032 22.4192 15.6208 21.5016 15.6187 19.8952ZM19.9709 19.456L18.9283 19.4616C18.9277 19.5029 18.9261 19.5507 18.9256 19.6027V20.1845C18.9256 20.496 18.6683 20.7496 18.3557 20.7496H18.1515C17.8384 20.7496 17.5811 20.496 17.5811 20.1845V18.6541H19.9688V17.7555C19.9688 17.0987 19.952 16.4421 19.8976 16.0667C19.7267 14.8789 18.0595 14.6904 17.2173 15.2984C16.9442 15.4913 16.7397 15.7665 16.6339 16.0837C16.5155 16.4253 16.4565 16.892 16.4565 17.4848V19.4608C16.4571 22.7456 20.4469 22.2813 19.9709 19.456ZM14.6221 8.72853C14.6903 8.89875 14.8065 9.04549 14.9565 9.15093C15.1059 9.256 15.2968 9.3088 15.5256 9.3088C15.7261 9.3088 15.9037 9.25467 16.0584 9.14293C16.2125 9.03173 16.3424 8.8656 16.4485 8.644L16.4221 9.1896H17.9723V2.59733H16.752V7.728C16.7468 7.85928 16.691 7.98344 16.5963 8.07448C16.5015 8.16552 16.3752 8.21637 16.2439 8.21637C16.1125 8.21637 15.9862 8.16552 15.8915 8.07448C15.7968 7.98344 15.7409 7.85928 15.7357 7.728V2.59733H14.4621V7.04373C14.4621 7.61013 14.4725 7.98773 14.4893 8.1792C14.5067 8.36933 14.5504 8.55173 14.6221 8.72853ZM9.92453 5.00533C9.92453 4.37253 9.97733 3.8784 10.0821 3.52213C10.1877 3.1672 10.3773 2.88187 10.652 2.66667C10.9259 2.4504 11.2765 2.34213 11.7029 2.34213C12.0616 2.34213 12.3688 2.41253 12.6253 2.5504C12.8832 2.68907 13.0821 2.86907 13.22 3.0912C13.3551 3.30143 13.4522 3.53376 13.5069 3.7776C13.5589 4.0152 13.5845 4.3736 13.5845 4.85707V6.52427C13.5845 7.13573 13.56 7.5856 13.5123 7.8712C13.4656 8.15614 13.3617 8.42866 13.2067 8.67227C13.052 8.91867 12.8523 9.10293 12.6101 9.22053C12.3653 9.3392 12.0853 9.39733 11.7691 9.39733C11.4157 9.39733 11.1181 9.34853 10.8728 9.24667C10.6267 9.14533 10.4365 8.99253 10.3011 8.7896C10.1643 8.5864 10.068 8.33893 10.0099 8.0504C9.95147 7.76213 9.92373 7.32853 9.92373 6.75067L9.92453 5.00533ZM11.1387 7.624C11.1387 7.99733 11.4165 8.30213 11.7549 8.30213C12.0936 8.30213 12.3704 7.99733 12.3704 7.624V4.11467C12.3704 3.74187 12.0936 3.43707 11.7549 3.43707C11.4165 3.43707 11.1387 3.74187 11.1387 4.11467V7.624ZM6.84853 9.396H8.31093L8.31253 4.34L10.0405 0.0088H8.44107L7.5224 3.22587L6.59067 0H5.00773L6.84613 4.3424L6.84853 9.396Z" fill="white"/>
</svg>
